id;answer;instructions;annex_id;recommendation_id;next_question_id;question_id
1079;National Capital Region (Metro Manila);NULL;NULL;NULL;1830;982
1004;Yes, I have a grievance against my employer / superior / management.;NULL;NULL;NULL;953;952
1005;Yes, I have a grievance in relation to  a labor union / organization.;NULL;NULL;2143;NULL;952
1008;No, I am not a domestic helper.;NULL;NULL;NULL;956;953
1009;I don't know.;NULL;NULL;NULL;954;953
1010;Yes, I engage in such work.;NULL;NULL;NULL;955;954
1011;No, I do not engage in such work.;NULL;NULL;NULL;956;954
1012;I engage in it only from time to time.;NULL;NULL;NULL;956;955
1013;It is my primary occupation.;NULL;NULL;2144;NULL;955
1014;Yes, I am a rank-and-file employee.;NULL;NULL;NULL;959;956
1015;No, I am not a rank-and-file employee.;NULL;NULL;NULL;957;956
1016;I don't know.;NULL;NULL;NULL;957;956
1017;No, I am not a managerial employee.;NULL;NULL;NULL;958;957
1018;Yes, I am a managerial employee.;NULL;NULL;NULL;959;957
1019;No, I am not a supervisory employee.;NULL;NULL;NULL;959;958
1020;Yes, I am a supervisory employee.;NULL;NULL;NULL;959;958
1021;Yes, he has the right to exercise ALL of those powers.;NULL;NULL;NULL;962;959
1023;Yes, he has that power.;NULL;NULL;NULL;961;960
1024;No, he does not have that power.;NULL;NULL;2003;NULL;960
1025;Yes, I am dependent on him.;NULL;NULL;NULL;962;961
1026;No, I am not dependent on him.;NULL;NULL;NULL;1676;961
1027;Termination of employment;NULL;NULL;NULL;1161;962
1028;Non-payment or underpayment of benefits or wages;NULL;NULL;NULL;963;962
1029;Regularization;NULL;NULL;2146;NULL;962
1030;Yes, my money claims are related to illegal dismissal.;NULL;NULL;NULL;1161;963
1032;Yes, more than 3 years have lapsed.;NULL;NULL;NULL;965;964
1033;No, 3 years have not yet lapsed.;NULL;NULL;NULL;966;964
1034;Yes, I was able to institute a claim before 3 years had lapsed.;NULL;NULL;NULL;966;965
1035;No, I was not able to institute a claim before 3 years had lapsed.;NULL;NULL;2101;NULL;965
1036;Yes, I am a government employee.;NULL;NULL;2145;NULL;966
1037;No, I am not a government employee.;NULL;NULL;NULL;967;966
1038;Yes, I am a managerial employee.;NULL;NULL;2147;NULL;967
1039;No, I am not a managerial employee.;NULL;NULL;NULL;968;967
1073;Cordillera Administrative Region;NULL;NULL;NULL;1831;982
1074;Region I (Ilocos);NULL;NULL;NULL;1832;982
1043;Yes, I do.;NULL;NULL;NULL;970;969
1044;No, I do not.;NULL;NULL;NULL;975;969
1045;Yes, I do.;NULL;NULL;NULL;971;970
1046;No, I do not.;NULL;NULL;NULL;975;970
1047;Yes, I do.;NULL;NULL;NULL;974;971
1048;No, I do not.;NULL;NULL;NULL;972;971
1049;Yes, it does.;NULL;NULL;NULL;974;972
1050;No, it does not.;NULL;NULL;NULL;973;972
1051;Yes, I do.;NULL;NULL;NULL;974;973
1052;No, I do not.;NULL;NULL;NULL;975;973
1053;Yes, I devote more than 20% of my hours worked in a workweek to activities unrelated to management work.;NULL;NULL;2147;NULL;974
1054;No, I do not devote more than 20% of my hours worked in a workweek to activities unrelated to management work.;NULL;NULL;NULL;975;974
1055;Yes, I am a field personnel.;NULL;NULL;2148;NULL;975
1056;No, I am not a field personnel.;NULL;NULL;NULL;976;975
1057;Yes, I am a member of the employer’s family who is dependent on him for support.;NULL;NULL;2148;NULL;976
1058;No, I am not a member of the employer’s family.;NULL;NULL;NULL;977;976
1059;No, I am a member of the employer’s family but I am not dependent on him for support.;NULL;NULL;NULL;977;976
1060;Yes, I am in the personal service of the employer.;NULL;NULL;2148;NULL;977
1061;No, I am not in the personal service of the employer.;NULL;NULL;NULL;978;977
1062;Yes, I am paid based on results.;NULL;NULL;2148;NULL;978
1063;No, I am not paid based on results.;NULL;NULL;NULL;979;978
1064;Yes, I am a domestic worker.;NULL;NULL;2144;NULL;979
1065;No, I am not a domestic worker.;NULL;NULL;NULL;980;979
1066;Underpayment or non-payment of wages.;NULL;NULL;NULL;981;980
1067;Underpayment or non-payment of 13th month pay.;NULL;NULL;NULL;990;980
1068;Underpayment or non-payment of separation pay.;NULL;NULL;NULL;994;980
1069;Underpayment or non-payment of retirement pay.;NULL;NULL;NULL;999;980
1070;Entitlement or recognition of service incentive leaves.;NULL;NULL;NULL;1157;980
1071;I might be receiving less than the minimum wage.;NULL;NULL;NULL;982;981
1072;I might have not  been properly paid the benefits I am entitled to.;NULL;NULL;NULL;983;981
1075;Region II (Cagayan Valley);NULL;NULL;NULL;1833;982
1076;Region III (Central Luzon);NULL;NULL;NULL;1834;982
1077;Region IV – A (Southern Tagalog Mainland – CALABARZON);NULL;NULL;NULL;1835;982
1080;Region IV – B (MIMAROPA);NULL;NULL;NULL;1836;982
1081;Region V (Bicol);NULL;NULL;NULL;1837;982
1082;Region VI (Western Visayas);NULL;NULL;NULL;1838;982
1083;Region VII (Central Visayas);NULL;NULL;NULL;1839;982
1084;Region VIII (Eastern Visayas);NULL;NULL;NULL;1840;982
1085;Region IX (Zamboanga Peninsula);NULL;NULL;NULL;1841;982
1086;Region X (Northern Mindanao);NULL;NULL;NULL;1842;982
1087;Region XI (Davao);NULL;NULL;NULL;1843;982
1088;Region XII (SOCCSKSARGEN);NULL;NULL;NULL;1844;982
1006;Yes, I have a grievance against a co-worker.;OPTION: Do you need a lawyer? Proceed to Legal Referral.;NULL;2001;NULL;952
1007;Yes, I am a domestic worker.;NULL;NULL;2144;NULL;953
1139;No, I have not rendered service for at least 5 years.;NULL;NULL;NULL;NULL;1155
1090;Yes, I work in such an establishment.;NULL;NULL;NULL;1847;983
1091;No, I do not work in such an establishment.;NULL;NULL;NULL;984;983
1092;Yes, I am a seasonal worker.;NULL;NULL;NULL;985;984
1093;No, I am not a seasonal worker.;NULL;NULL;NULL;987;984
1094;Yes, I am.;NULL;NULL;NULL;986;985
1095;No, I am not.;NULL;NULL;NULL;1848;985
1096;Yes, I did.;NULL;NULL;NULL;1848;986
1097;No, I did not.;NULL;NULL;NULL;1847;986
1098;Yes, I am.;NULL;NULL;NULL;988;987
1100;Yes, I am.;NULL;NULL;NULL;1849;988
1101;No, I am not.;NULL;NULL;NULL;1850;988
1102;Yes, I do.;NULL;NULL;NULL;1847;989
1103;No, I do not.;NULL;NULL;NULL;1848;989
1149;Yes, I have already rendered at least 1 year of service.;NULL;NULL;2141;1961;1160
1106;Yes, the employer has been paying 13th month pay or its equivalent since November 16, 1987 or earlier.;NULL;NULL;NULL;992;991
1107;No, the employer has not been paying 13th month pay from a time before November 16, 1987.;NULL;NULL;NULL;993;991
1108;Yes, he has.;NULL;NULL;2126;NULL;992
1109;No, the payments amount to less than 1/12 of the basic salary for the calendar year.;NULL;NULL;NULL;1951;992
1110;Yes, I am separated from service.;NULL;NULL;NULL;1952;993
1111;No, I am not separated from service.;NULL;NULL;NULL;1953;993
1112;Yes, I was terminated due to at least one of those causes.;NULL;NULL;NULL;1954;994
1113;No, I was not terminated because of those causes.;NULL;NULL;NULL;995;994
1115;Yes, I was terminated because of at least one of those causes.;NULL;NULL;NULL;1955;995
1116;No, I was not terminated because of those causes.;NULL;NULL;NULL;996;995
1117;I’m not sure if I was validly terminated under one of those causes.;NULL;NULL;NULL;1166;995
1118;Yes, I was terminated because the company closed due to serious business losses.;NULL;NULL;2132;NULL;996
1119;No, I was not terminated because of this.;NULL;NULL;NULL;997;996
1120;I’m not sure if I was validly terminated because of this reason.;NULL;NULL;NULL;1166;996
1121;Yes, I was terminated because of a disease I am suffering from.;NULL;NULL;NULL;1956;997
1122;No, I was not terminated because of this.;NULL;NULL;NULL;998;997
1124;Yes, I was.;NULL;NULL;NULL;1957;998
1125;No, I was not.;NULL;NULL;NULL;1958;998
1126;I'm not sure.;NULL;NULL;NULL;1483;998
1127;Yes, I work in such an establishment.;NULL;NULL;2135;NULL;999
1128;No, I do not work in such an establishment.;NULL;NULL;NULL;1000;999
1129;Yes, I work in such an establishment.;NULL;NULL;2135;NULL;1000
1130;No, I do not work in such an establishment.;NULL;NULL;NULL;1151;1000
1131;Yes, I work in such an establishment.;NULL;NULL;2135;NULL;1151
1132;No, I do not work in such an establishment.;NULL;NULL;NULL;1152;1151
1133;Yes, I am an underground mining employee.;NULL;NULL;NULL;1153;1152
1134;No, I am not an underground mining employee.;NULL;NULL;NULL;1155;1152
1220;Serious misconduct in connection with work. ;NULL;NULL;NULL;1171;1170
1137;Yes, I have reached such age.;NULL;NULL;NULL;1959;1154
1138;No, I have not yet reached such age.;NULL;NULL;2136;NULL;1154
1140;Yes, I have reached such age.;NULL;NULL;NULL;1960;1156
1141;No, I have not yet reached such age.;NULL;NULL;2138;NULL;1156
1142;Yes, I am employed in such an establishment.;NULL;NULL;2140;NULL;1157
1143;No, I am not employed in such an establishment.;NULL;NULL;NULL;1158;1157
1144;Yes, I am.;NULL;NULL;2140;NULL;1158
1145;No, I am not.;NULL;NULL;NULL;1159;1158
1146;Yes, I am.;NULL;NULL;2140;NULL;1159
1147;No, I am not.;NULL;NULL;NULL;1160;1159
1222;Willful disobedience of the lawful orders of the employer or his representative in connection with his work.;NULL;NULL;NULL;1175;1170
1150;Yes, more than 4 years have elapsed.;NULL;NULL;NULL;1162;1161
1201;No, 4 years have not yet elapsed.;NULL;NULL;NULL;1163;1161
1202;Yes, I was able to institute a claim before 4 years had passed.;NULL;NULL;NULL;1163;1162
1204;I was dismissed by my employer.;NULL;NULL;NULL;1164;1163
1205;I resigned.;NULL;NULL;NULL;1483;1163
1206;Yes, I was terminated under such a program.;NULL;NULL;2005;NULL;1164
1207;No, I was not terminated under such a program.;NULL;NULL;NULL;1165;1164
1208;Yes, I was terminated based on one of those grounds.;NULL;NULL;NULL;1167;1165
1209;No, I was not terminated based on any of those grounds.;NULL;NULL;NULL;1166;1165
1210;Yes, I was terminated based on one of those grounds.;NULL;NULL;NULL;1320;1166
1211;No, I was not terminated based on any of those grounds.;NULL;NULL;NULL;1350;1166
1212;Yes, I was given such a notice.;NULL;NULL;NULL;1168;1167
1213;No, I was not given such a notice.;NULL;NULL;NULL;1677;1167
1214;Yes, I was.;NULL;NULL;NULL;1169;1168
1215;No, I was not.;NULL;NULL;NULL;1677;1168
1216;Yes, I was.;NULL;NULL;NULL;1170;1169
1217;No, I was not.;NULL;NULL;NULL;1677;1169
1223;Gross and habitual neglect of duties.;NULL;NULL;NULL;1179;1170
1224;Abandonment of work.;NULL;NULL;NULL;1181;1170
1225;Fraud or dishonesty in relation to work.;NULL;NULL;NULL;1184;1170
1226;Willful breach of the employer or his duly authorized representative’s trust.;NULL;NULL;NULL;1188;1170
1105;Yes, I have been working for the employer for at least 1 month during the calendar year.;NULL;NULL;2125;991;990
1136;Yes, I have rendered service for at least 5 years.;NULL;NULL;2136;1154;1153
1395;Yes, it was.;NULL;NULL;NULL;1326;1325
1396;No, it was not.;NULL;NULL;NULL;1692;1325
1397;Yes, it was.;NULL;NULL;NULL;1327;1326
1231;Participation in an illegal strike.;NULL;NULL;NULL;1199;1170
1229;Participation in the commission of illegal acts during a strike.;NULL;NULL;NULL;1193;1170
1258;Yes, it was.;NULL;NULL;NULL;1183;1182
1233;Yes, it was.;NULL;NULL;NULL;1172;1171
1234;No, it was not.;NULL;NULL;NULL;1678;1171
1235;Yes, it was.;NULL;NULL;NULL;1173;1172
1236;No, it was not.;NULL;NULL;NULL;1678;1172
1237;Yes, it did.;NULL;NULL;NULL;1174;1173
1238;No, it did not.;NULL;NULL;NULL;1678;1173
1239;Yes, it was.;NULL;NULL;2008;NULL;1174
1240;No, it was not.;NULL;NULL;NULL;1678;1174
1241;Yes, I did.;NULL;NULL;NULL;1176;1175
1242;No, I did not.;NULL;NULL;NULL;1679;1175
1243;Yes, it was.;NULL;NULL;NULL;1177;1176
1245;Yes, it was.;NULL;NULL;NULL;1178;1177
1246;No, it was not.;NULL;NULL;NULL;1679;1177
1247;Yes, it was.;NULL;NULL;2010;NULL;1178
1248;No, it was not.;NULL;NULL;NULL;1679;1178
1251;No, it was neither gross nor habitual.;NULL;NULL;NULL;1680;1179
1252;It was gross, but not habitual.;NULL;NULL;NULL;1680;1179
1262;Yes, I committed fraudulent or dishonest acts.;NULL;NULL;NULL;1185;1184
1253;Yes, it was.;NULL;NULL;2012;NULL;1180
1254;No, it was not.;NULL;NULL;NULL;1680;1180
1255;Yes, I did.;NULL;NULL;NULL;1182;1181
1256;No, I did not.;NULL;NULL;NULL;1681;1181
1272;Yes, I did.;NULL;NULL;NULL;1190;1189
1259;Yes, I did.;NULL;NULL;2014;NULL;1183
1260;No, I did not.;NULL;NULL;NULL;1681;1183
1278;Yes, it was.;NULL;NULL;2018;1683;1192
1263;Yes, I did.;NULL;NULL;NULL;1187;1185
1264;No, I did not.;NULL;NULL;NULL;1186;1185
1265;Yes, I did.;NULL;NULL;NULL;1187;1186
1266;No, I did not.;NULL;NULL;NULL;1682;1186
1267;Yes, it was.;NULL;NULL;2016;NULL;1187
1268;No, it was not.;NULL;NULL;NULL;1682;1187
1269;Yes, I am.;NULL;NULL;NULL;1189;1188
1270;No, I am not.;NULL;NULL;NULL;1683;1188
1300;The Secretary assumed jurisdiction.;NULL;NULL;NULL;1304;1303
1273;Yes, I did.;NULL;NULL;NULL;1191;1190
1274;No, I did not.;NULL;NULL;NULL;1683;1190
1275;Yes, I do.;NULL;NULL;NULL;1683;1191
1276;No, I do not.;NULL;NULL;NULL;1192;1191
1230;Commission of a crime or offense against the person of the employer or any immediate member of his family or his duly authorized representatives.;NULL;NULL;NULL;1196;1170
1279;Yes, I did.;NULL;NULL;2020;NULL;1193
1280;No, I did not.;NULL;NULL;NULL;1194;1193
1281;Yes, I did.;NULL;NULL;2020;NULL;1194
1283;Yes, I did.;NULL;NULL;2020;NULL;1195
1284;No, I did not.;NULL;NULL;NULL;1684;1195
1285;Yes, I did.;NULL;NULL;NULL;1197;1196
1286;No, I did not.;NULL;NULL;NULL;1685;1196
1287;Yes, I did.;NULL;NULL;NULL;1198;1197
1289;Yes, I am.;NULL;NULL;2021;NULL;1198
1290;No, I am not.;NULL;NULL;NULL;1686;1198
1291;Yes, I did.;NULL;NULL;2024;NULL;1199
1292;No, I did not.;NULL;NULL;NULL;1200;1199
1293;Yes, I did.;NULL;NULL;2024;NULL;1200
1295;Yes, I did.;NULL;NULL;2024;NULL;1301
1296;No, I did not.;NULL;NULL;NULL;1302;1301
1297;Yes, I did.;NULL;NULL;2024;NULL;1302
1298;No, I did not.;NULL;NULL;NULL;1687;1302
1352;Yes, I did.;NULL;NULL;2027;NULL;1304
1353;No, I did not.;NULL;NULL;NULL;1688;1304
1354;Yes, I did.;NULL;NULL;2027;NULL;1305
1355;No, I did not.;NULL;NULL;NULL;1688;1305
1356;Yes, there is.;NULL;NULL;NULL;1307;1306
1357;No, there is no such agreement.;NULL;NULL;NULL;1689;1306
1358;Yes, I am.;NULL;NULL;NULL;1689;1307
1359;No, I am not.;NULL;NULL;NULL;1308;1307
1360;Yes, I am.;NULL;NULL;NULL;1689;1308
1361;No, I am not.;NULL;NULL;NULL;1309;1308
1362;Yes, I was.;NULL;NULL;NULL;1689;1309
1363;No, I was not.;NULL;NULL;NULL;1310;1309
1364;Yes, I was.;NULL;NULL;NULL;1311;1310
1365;No, I was not.;NULL;NULL;NULL;1312;1310
1366;Yes, I was.;NULL;NULL;NULL;1689;1311
1367;No, I was not.;NULL;NULL;NULL;1312;1311
1368;Yes, I was.;NULL;NULL;NULL;1313;1312
1369;No, I was not.;NULL;NULL;NULL;1314;1312
1370;Yes, I was.;NULL;NULL;NULL;1314;1313
1374;Yes, the sole and exclusive bargaining agent was the one that demanded my dismissal, but the employer did not conduct an independent investigation.;NULL;NULL;NULL;1689;1314
1375;Yes, I am suffering from a disease.;NULL;NULL;NULL;1316;1315
1376;No, I am not suffering from a disease.;NULL;NULL;NULL;1690;1315
1377;Yes, it is.;NULL;NULL;NULL;1319;1316
1378;No, it is not.;NULL;NULL;NULL;1317;1316
1379;Yes, it is.;NULL;NULL;NULL;1319;1317
1380;No, it is not.;NULL;NULL;NULL;1318;1317
1381;Yes, it is.;NULL;NULL;NULL;1319;1318
1382;No, it is not.;NULL;NULL;NULL;1690;1318
1383;Yes, such a certificate was issued.;NULL;NULL;NULL;1691;1319
1384;No, such a certificate was not issued.;NULL;NULL;NULL;1690;1319
1385;Yes, I was.;NULL;NULL;NULL;1321;1320
1386;No, I was not.;NULL;NULL;NULL;1692;1320
1387;Yes, it was.;NULL;NULL;NULL;1322;1321
1388;No, it was not.;NULL;NULL;NULL;1692;1321
1389;Yes, it did.;NULL;NULL;NULL;1323;1322
1390;No, it did not.;NULL;NULL;NULL;1692;1322
1391;Yes, it did.;NULL;NULL;NULL;1324;1323
1392;No, it did not.;NULL;NULL;NULL;1692;1323
1393;Yes, it was.;NULL;NULL;NULL;1325;1324
1250;Yes, it was gross and habitual.;NULL;NULL;NULL;1180;1179
1399;Yes, it was.;NULL;NULL;NULL;1328;1327
1400;No, it was not.;NULL;NULL;NULL;1693;1327
1402;Yes, the proper separation pay was given.;NULL;NULL;NULL;1329;1328
1403;Yes, fair and reasonable criteria was used.;NULL;NULL;NULL;1330;1329
1404;No, fair and reasonable criteria was not used.;NULL;NULL;NULL;1693;1329
1409;Yes, the purpose was for a justifiable economic reason.;NULL;NULL;NULL;1332;1331
1410;No, the purpose was not for a justifiable economic reason.;NULL;NULL;NULL;1694;1331
1411;Yes, it was exercised with malice, arbitrariness, or abuse of discretion.;NULL;NULL;NULL;1694;1332
1412;No, it was exercised in good faith.;NULL;NULL;2035;NULL;1332
1413;Yes, it was.;NULL;NULL;2036;NULL;1333
1414;No, it was not.;NULL;NULL;NULL;1334;1333
1415;Yes, it was superfluous.;NULL;NULL;2036;NULL;1334
1416;No, it was not superfluous.;NULL;NULL;NULL;1335;1334
1417;Yes, it is duplicated.;NULL;NULL;2036;NULL;1335
1418;No, it is not duplicated.;NULL;NULL;NULL;1336;1335
1419;Yes, it was a cost-cutting measure.;NULL;NULL;2036;NULL;1336
1420;No, it was not a cost-cutting measure.;NULL;NULL;NULL;1337;1336
1421;Yes, it streamlined operations.;NULL;NULL;2036;NULL;1337
1422;No, it did not streamline operations.;NULL;NULL;NULL;1695;1337
1423;Yes, he experienced business losses or will be facing losses.;NULL;NULL;NULL;1339;1338
1424;No, he has not experienced business losses and does not face imminent losses.;NULL;NULL;NULL;1696;1338
1425;Yes, the losses are substantial.;NULL;NULL;NULL;1340;1339
1426;No, the losses are not substantial.;NULL;NULL;NULL;1696;1339
1427;Yes, it will likely prevent the losses.;NULL;NULL;NULL;1341;1340
1428;No, it will not likely prevent the losses.;NULL;NULL;NULL;1696;1340
1429;Yes, they can be proved by externally audited financial statements.;NULL;NULL;2039;NULL;1341
1430;No, they cannot be proved by externally audited financial statements.;NULL;NULL;NULL;1696;1341
1431;The business closed down.;NULL;NULL;NULL;1343;1342
1432;The business operations were suspended.;NULL;NULL;NULL;1346;1342
1433;Yes, it was due to serious business losses or financial reverses.;NULL;NULL;NULL;1344;1343
1434;No, it was not due to serious business losses or financial reverses.;NULL;NULL;NULL;1697;1343
1435;It was total.;NULL;NULL;NULL;1345;1344
1436;It was partial.;NULL;NULL;NULL;1338;1344
1437;Yes, it can.;NULL;NULL;2041;NULL;1345
1438;No, it cannot.;NULL;NULL;NULL;1697;1345
1439;Yes, the suspension exceeded more than 6 months.;NULL;NULL;NULL;1343;1346
1440;No, the suspension did not exceed 6 months.;NULL;NULL;NULL;1347;1346
1441;Yes, the suspension was bona fide.;NULL;NULL;NULL;1348;1347
1442;No, the suspension was not bona fide.;NULL;NULL;NULL;1698;1347
1443;Yes, I did.;NULL;NULL;NULL;1349;1348
1444;No, I did not.;NULL;NULL;2043;NULL;1348
1445;Yes, I did.;NULL;NULL;NULL;1698;1349
1446;No, I did not.;NULL;NULL;2043;NULL;1349
1447;Yes, I was terminated as a probationary employee.;NULL;NULL;NULL;1451;1350
1448;No, I was not terminated as a probationary employee.;NULL;NULL;NULL;1461;1350
1449;Yes, there is a written employment contract that states that I am a probationary employee.;NULL;NULL;NULL;1452;1451
1450;No, there is no written employment contract that states that I am a probationary employee.;NULL;NULL;NULL;1699;1451
1501;Yes, there is a provision on the probationary period.;NULL;NULL;NULL;1453;1452
1502;No, there is no stipulation on the probationary period.;NULL;NULL;NULL;1700;1452
1503;Yes, I was terminated on the ground that I failed to qualify as a regular employee.;NULL;NULL;NULL;1454;1453
1504;No, I was not terminated on the ground that I failed to qualify as a regular employee.;NULL;NULL;NULL;1801;1453
1505;Yes, the standards were explained to me at the start of my employment.;NULL;NULL;NULL;1455;1454
1506;No, the standards were not explained to me at the start of my employment.;NULL;NULL;NULL;1802;1454
1507;Yes, it does.;NULL;NULL;NULL;1456;1455
1508;No, it does not.;NULL;NULL;NULL;1457;1455
1509;Yes, they were complied with.;NULL;NULL;NULL;1457;1456
1510;No, they were not complied with.;NULL;NULL;NULL;1803;1456
1511;Yes, I was given a written notice of termination.;NULL;NULL;NULL;1458;1457
1512;No, I was not given a written notice of termination.;NULL;NULL;NULL;1807;1457
1513;Yes, it was given to me before the probationary period expired.;NULL;NULL;NULL;1459;1458
1514;No, it was given to me after the probationary period expired.;NULL;NULL;NULL;1804;1458
1515;Yes, I was still made to work after the expiry of the probationary period.;NULL;NULL;NULL;1805;1459
1516;No, I did not work after the expiry of the probationary period.;NULL;NULL;NULL;1460;1459
1517;Yes, I have been repeatedly hired as a probationary employer by the same employer.;NULL;NULL;NULL;1806;1460
1518;No, I have not been repeatedly hired as a probationary employee by the same employer.;NULL;NULL;2052;NULL;1460
1519;Yes, I was terminated as a project employee.;NULL;NULL;NULL;1465;1461
1520;No, I was not terminated as a project employee.;NULL;NULL;NULL;1466;1461
1521;I don’t know.;NULL;NULL;NULL;1462;1461
1522;Yes, there is such a written employment contract.;NULL;NULL;NULL;1463;1462
1523;No, there is no written employment contract.;NULL;NULL;NULL;1808;1462
1525;Yes, I was.;NULL;NULL;NULL;1464;1463
1526;No, I was not.;NULL;NULL;NULL;1466;1463
1527;Yes, the project or undertaking’s scope and duration was specified at the time I was hired.;NULL;NULL;NULL;1465;1464
1880;See Applicable Minimum Wage Rates;NULL;NULL;NULL;NULL;1832
1529;Yes, I was terminated when it was completed.;NULL;NULL;2055;NULL;1465
1530;No, I was not terminated even after it was completed.;NULL;NULL;NULL;1809;1465
1531;No, I was terminated before it was completed.;NULL;NULL;NULL;1810;1465
1532;Yes, I was terminated as a seasonal employee.;NULL;NULL;NULL;1471;1466
1533;No, I was not terminated as a seasonal employee.;NULL;NULL;NULL;1472;1466
1534;I don’t know.;NULL;NULL;NULL;1467;1466
1535;Yes, there is such a written employment contract.;NULL;NULL;NULL;1468;1467
1536;No, there is no written employment contract.;NULL;NULL;NULL;1811;1467
1538;Yes, it is.;NULL;NULL;NULL;1469;1468
1539;No, it is not.;NULL;NULL;NULL;1472;1468
1540;Yes, it is.;NULL;NULL;NULL;1470;1469
1541;No, it is not.;NULL;NULL;NULL;1472;1469
1542;Yes, it is.;NULL;NULL;NULL;1471;1470
1543;No, it is not.;NULL;NULL;NULL;1472;1470
1544;Yes, I have been hired as a seasonal employee for more than one season by the same employer.;NULL;NULL;NULL;1812;1471
1545;No, I have not been hired for more than one season.;NULL;NULL;2060;NULL;1471
1546;Yes, I was terminated as a casual employee.;NULL;NULL;NULL;1475;1472
1547;No, I was not terminated as a casual employee.;NULL;NULL;NULL;1477;1472
1548;I don’t know.;NULL;NULL;NULL;1473;1472
1550;No, there is no written employment contract.;NULL;NULL;NULL;1813;1473
1569;Yes, the termination was due to the expiration of the fixed period.;NULL;NULL;NULL;1482;1481
1552;Yes, it is merely incidental to the employer’s business.;NULL;NULL;NULL;1475;1474
1553;No, it is necessary or desirable to the employer’s usual trade or business.;NULL;NULL;NULL;1477;1474
1554;Yes, I have worked for at least a year or more.;NULL;NULL;NULL;1814;1475
1555;No, I have worked for less than a year.;NULL;NULL;NULL;1476;1475
1558;Yes, I was terminated as a fixed-term employee.;NULL;NULL;NULL;1480;1477
1559;No, I was not terminated as a fixed-term employee.;NULL;NULL;2065;NULL;1477
1560;I don’t know.;NULL;NULL;NULL;1478;1477
1561;Yes, there is such a written employment contract.;NULL;NULL;NULL;1479;1478
1562;No, there is no written employment contract.;NULL;NULL;NULL;1816;1478
1563;There is a written employment contract, but it does not state the specific fixed period of employment.;NULL;NULL;2065;NULL;1478
1564;Yes, we dealt with each other in equal terms.;NULL;NULL;NULL;1481;1479
1565;No, we did not deal with each other in equal terms.;NULL;NULL;NULL;1480;1479
1566;Yes, I voluntarily agreed on this fixed period.;NULL;NULL;NULL;1481;1480
1567;No, I did not voluntarily agree on this fixed period.;NULL;NULL;NULL;1817;1480
1551;Yes, there is such a written employment contract.;NULL;NULL;NULL;1474;1473
1570;Yes, I was allowed to work beyond the fixed term.;NULL;NULL;NULL;1818;1482
1571;No, I was not allowed to work beyond the fixed term.;NULL;NULL;2068;NULL;1482
1572;Yes, I voluntarily resigned.;NULL;NULL;NULL;1484;1483
1573;No, I was forced by the employer to resign.;NULL;NULL;NULL;1490;1483
1574;No, I resigned due to other acts or conduct of the employer.;NULL;NULL;NULL;1494;1483
1576;Yes, I gave the employer a written notice.;NULL;NULL;NULL;1485;1484
1577;No, I did not give the employer a written notice.;NULL;NULL;2071;NULL;1484
1578;Yes, I gave the notice at least 1 month in advance.;NULL;NULL;NULL;1486;1485
1579;No, I gave it less than 1 one month before my intended date of resignation.;NULL;NULL;2072;NULL;1485
1580;No, the employer asked to shorten the date of resignation to less than 1 month.;NULL;NULL;2073;NULL;1485
1581;The employer wanted to extend the period beyond 30 days.;NULL;NULL;2074;NULL;1485
1582;Yes, I withdrew my resignation.;NULL;NULL;NULL;1487;1486
1583;No, I did not withdraw my resignation.;NULL;NULL;NULL;1489;1486
1584;Yes, I withdrew my resignation before he accepted it.;NULL;NULL;2075;NULL;1487
1585;No, I withdrew my resignation after he accepted it.;NULL;NULL;NULL;1488;1487
1586;Yes, he still accepted my withdrawal.;NULL;NULL;2076;NULL;1488
1587;No, he did not accept my withdrawal.;NULL;NULL;2077;NULL;1488
1588;Yes, the employer accepted my resignation.;NULL;NULL;2078;NULL;1489
1589;No, the employer did not accept my resignation.;NULL;NULL;2079;NULL;1489
1590;The employer demanded that I submit my resignation letter.;NULL;NULL;NULL;1491;1490
1591;The employer threatened to dismiss me if I did not resign.;NULL;NULL;NULL;1493;1490
1592;The employer threatened to file charges against me if I did not resign.;NULL;NULL;NULL;1666;1490
1593;Yes, I had the intention to resign.;NULL;NULL;NULL;1492;1491
1594;No, I had no intention to resign.;NULL;NULL;NULL;1822;1491
1595;Yes, I performed an act that would show an intent to resign.;NULL;NULL;NULL;1821;1492
1596;No, I did not perform any act that would show an intent to resign.;NULL;NULL;NULL;1822;1492
1597;Yes, I resigned because the employer threatened to dismiss me for causes such as or similar to the above.;NULL;NULL;2083;NULL;1493
1598;No, I resigned because the employer threatened to dismiss me for other causes or reasons.;NULL;NULL;NULL;1823;1493
1599;Yes, I resigned because the employer assured me that I would be re-hired again.;NULL;NULL;NULL;1820;1494
1600;No, I did not resign because of such an assurance made by the employer.;NULL;NULL;NULL;1495;1494
1601;Yes, I resigned because the employer performed such an act.;NULL;NULL;2085;NULL;1495
1602;No, the employer did not perform such an act.;NULL;NULL;NULL;1496;1495
1603;Yes, I resigned because the employer treated me inhumanely.;NULL;NULL;2085;NULL;1496
1604;No, the employer did not treat me inhumanely.;NULL;NULL;NULL;1497;1496
1605;Yes, I resigned because the employer committed a crime or offense against me or my immediate family members.;NULL;NULL;2085;NULL;1497
1557;Yes, I have been repeatedly rehired as a casual employee by the same employer.;NULL;NULL;2064;1815;1476
1607;Yes, I resigned because I was demoted.;NULL;NULL;NULL;1824;1498
1608;No, I did not resign because of that.;NULL;NULL;NULL;1499;1498
1609;Yes, I resigned because my roles were diminished or downgraded.;NULL;NULL;NULL;1824;1499
1610;No, I did not resign because of that.;NULL;NULL;NULL;1500;1499
1611;Yes, I resigned because my salary was decreased.;NULL;NULL;NULL;1824;1500
1613;Yes, I resigned because my salary was withheld.;NULL;NULL;NULL;1824;1651
1614;No, I did not resign because of that.;NULL;NULL;NULL;1652;1651
1615;Yes, I resigned because the employer discriminated against me.;NULL;NULL;NULL;1824;1652
1616;No, I did not resign because the employer discriminated against me.;NULL;NULL;NULL;1653;1652
1617;Yes, I resigned because the employer constantly pressured me to resign.;NULL;NULL;NULL;1824;1653
1618;No, I did not resign because of that.;NULL;NULL;NULL;1654;1653
1619;Yes, I resigned because I was replaced by another while I was on leave.;NULL;NULL;NULL;1824;1654
1620;No, I did not resign because of that.;NULL;NULL;NULL;1655;1654
1621;Yes, I resigned because of such transfer.;NULL;NULL;NULL;1656;1655
1622;No, I did not resign because of that.;NULL;NULL;NULL;1661;1655
1706;Yes, I already in the process of going through the grievance mechanism for this issue.;NULL;NULL;2096;1673;1672
1625;Yes, it was.;NULL;NULL;NULL;1827;1657
1626;No, it was not.;NULL;NULL;NULL;1658;1657
1627;Yes, the transfer involved a demotion in rank.;NULL;NULL;NULL;1827;1658
1628;No, it did not.;NULL;NULL;NULL;1659;1658
1629;Yes, it involved a decrease in salaries, benefits, or other privileges.;NULL;NULL;NULL;1827;1659
1630;No, it did not.;NULL;NULL;NULL;1660;1659
1717;Know what an illegally terminated employee is entitled to.;NULL;NULL;NULL;1957;1678
1633;Yes, I resigned because I was suspended.;NULL;NULL;NULL;1662;1661
1634;No, I did not resign because I was suspended.;NULL;NULL;NULL;1665;1661
1635;I was indefinitely suspended.;NULL;NULL;NULL;1828;1662
1636;I was preventively suspended;NULL;NULL;NULL;1663;1662
1637;Yes, the suspension lasted for more than 30 days.;NULL;NULL;NULL;1664;1663
1638;No, the suspension did not last for more than 30 days.;NULL;NULL;2091;NULL;1663
1639;Yes, the employer paid the salaries and benefits due me.;NULL;NULL;2091;NULL;1664
1640;No, the employer did not pay the salaries and benefits due me.;NULL;NULL;NULL;1829;1664
1725;Know what an illegally terminated employee is entitled to.;NULL;NULL;NULL;1957;1682
1643;Yes, it is just or legal.;NULL;NULL;2093;NULL;1666
1644;No, it is not just or legal.;NULL;NULL;NULL;1491;1666
1645;Illegal termination.;NULL;NULL;NULL;1668;1667
1646;Money claims.;NULL;NULL;NULL;1673;1667
1647;Yes, I am a corporate officer.;NULL;NULL;2094;NULL;1668
1648;No, I am not a corporate officer.;NULL;NULL;NULL;1669;1668
1649;Yes, my employer can be sued.;NULL;NULL;NULL;1670;1669
1650;No, my employer cannot be sued.;NULL;NULL;2095;NULL;1669
1701;Yes, there is.;NULL;NULL;NULL;1671;1670
1702;No, there is no CBA.;NULL;NULL;2096;NULL;1670
1703;Yes, there is.;NULL;NULL;NULL;1672;1671
1704;No, there is no grievance mechanism.;NULL;NULL;2096;NULL;1671
1745;Determine if a proper cause for dismissal existed.;NULL;NULL;NULL;1330;1692
1707;Yes, I have been terminated.;NULL;NULL;2097;NULL;1673
1708;No, I have not yet been terminated.;NULL;NULL;2098;NULL;1673
1709;Yes, I am asking for reinstatement.;NULL;NULL;2099;NULL;1674
1710;No, I am not asking for reinstatement.;NULL;NULL;NULL;1675;1674
1711;Yes, the claim involves an amount above P5,000.00.;NULL;NULL;2099;NULL;1675
1712;No, the claim involves an amount of P5,000.00 or less.;NULL;NULL;2100;NULL;1675
1713;Determine if a proper cause for dismissal existed.;NULL;NULL;NULL;1170;1677
1714;Know what an illegally terminated employee is entitled to.;NULL;NULL;NULL;1957;1677
1715;File a case.;NULL;NULL;NULL;1667;1677
1743;Know what an illegally terminated employee is entitled to.;NULL;NULL;NULL;1957;1692
1718;Know what an illegally terminated employee is entitled to.;NULL;NULL;NULL;1957;1679
1719;File a case.;NULL;NULL;NULL;1667;1679
1720;Know what an illegally terminated employee is entitled to.;NULL;NULL;NULL;1957;1680
1721;File a case.;NULL;NULL;NULL;1667;1680
1722;Know what an illegally terminated employee is entitled to.;NULL;NULL;NULL;1957;1681
1723;File a case.;NULL;NULL;NULL;1667;1681
1632;Yes, the transfer involved discrimination or disdain by the employer.;NULL;NULL;NULL;1827;1660
1726;Know what an illegally terminated employee is entitled to.;NULL;NULL;NULL;1957;1683
1727;File a case.;NULL;NULL;NULL;1667;1683
1728;Know what an illegally terminated employee is entitled to.;NULL;NULL;NULL;1957;1684
1729;File a case.;NULL;NULL;NULL;1667;1684
1730;Know what an illegally terminated employee is entitled to.;NULL;NULL;NULL;1957;1685
1731;File a case.;NULL;NULL;NULL;1667;1685
1732;Know what an illegally terminated employee is entitled to.;NULL;NULL;NULL;1957;1686
1733;File a case.;NULL;NULL;NULL;1667;1686
1736;Know what an illegally terminated employee is entitled to.;NULL;NULL;NULL;1957;1688
1737;File a case.;NULL;NULL;NULL;1667;1688
1738;Know what an illegally terminated employee is entitled to.;NULL;NULL;NULL;1957;1689
1739;File a case.;NULL;NULL;NULL;1667;1689
1740;Know what an illegally terminated employee is entitled to.;NULL;NULL;NULL;1957;1690
1741;File a case.;NULL;NULL;NULL;1667;1690
1742;File a case.;NULL;NULL;NULL;1667;1691
1746;Know what an illegally terminated employee is entitled to.;NULL;NULL;NULL;1957;1693
1747;File a case.;NULL;NULL;NULL;1667;1693
1881;File a case.;NULL;NULL;NULL;1667;1832
1876;See Applicable Minimum Wage Rates;NULL;NULL;NULL;NULL;1830
1878;See Applicable Minimum Wage Rates;NULL;NULL;NULL;NULL;1831
1773;Know what an illegally terminated employee is entitled to.;NULL;NULL;NULL;1957;1807
1750;Know what an illegally terminated employee is entitled to.;NULL;NULL;NULL;1957;1695
1751;File a case.;NULL;NULL;NULL;1667;1695
1780;Check if the employer used legal grounds to justify your termination. If the employer did not use such grounds, then the dismissal would be invalid.;NULL;NULL;NULL;1165;1810
1754;Determine if the employer did not provide for the proper separation pay.;NULL;NULL;NULL;1954;1697
1755;Know what an illegally terminated employee is entitled to.;NULL;NULL;NULL;1957;1698
1756;File a case.;NULL;NULL;NULL;1667;1698
1757;Know what an illegally terminated employee is entitled to.;NULL;NULL;NULL;1957;1699
1758;File a case.;NULL;NULL;NULL;1667;1699
1759;Know what an illegally terminated employee is entitled to.;NULL;NULL;NULL;1957;1700
1760;File a case.;NULL;NULL;NULL;1667;1700
1794;Check if the employer used authorized grounds to justify your termination. If the employer did not use such grounds, then the dismissal would be invalid.;NULL;NULL;NULL;1166;1815
1763;Know what an illegally terminated employee is entitled to.;NULL;NULL;NULL;1957;1802
1764;File a case.;NULL;NULL;NULL;1667;1802
1765;File a case.;NULL;NULL;NULL;1667;1803
1766;Know what an illegally terminated employee is entitled to.;NULL;NULL;NULL;1957;1804
1767;File a case.;NULL;NULL;NULL;1667;1804
1768;Know what an illegally terminated employee is entitled to.;NULL;NULL;NULL;1957;1805
1769;File a case.;NULL;NULL;NULL;1667;1805
1770;Know what an illegally terminated employee is entitled to.;NULL;NULL;NULL;1957;1806
1771;File a case.;NULL;NULL;NULL;1667;1806
1858;Check if the employer used just grounds to justify your termination. If the employer did not use such grounds, then the dismissal would be invalid.;NULL;NULL;NULL;1165;1819
1774;Know what an illegally terminated employee is entitled to.;NULL;NULL;NULL;1957;1808
1775;File a case.;NULL;NULL;NULL;1667;1808
1776;Know what an illegally terminated employee is entitled to.;NULL;NULL;NULL;1957;1809
1777;File a case.;NULL;NULL;NULL;1667;1809
1781;Check if the employer used just grounds to justify your termination. If the employer did not use such grounds, then the dismissal would be invalid.;NULL;NULL;NULL;1165;1811
1782;Check if the employer used authorized grounds to justify your termination. If the employer did not use such grounds, then the dismissal would be invalid.;NULL;NULL;NULL;1166;1811
1783;Know what an illegally terminated employee is entitled to.;NULL;NULL;NULL;1957;1811
1784;File a case.;NULL;NULL;NULL;1667;1811
1785;Know what an illegally terminated employee is entitled to.;NULL;NULL;NULL;1957;1812
1786;File a case.;NULL;NULL;NULL;1667;1812
1787;Know what an illegally terminated employee is entitled to.;NULL;NULL;NULL;1957;1813
1788;File a case.;NULL;NULL;NULL;1667;1813
1789;Know what an illegally terminated employee is entitled to.;NULL;NULL;NULL;1957;1814
1790;File a case.;NULL;NULL;NULL;1667;1814
1749;Know what an illegally terminated employee is entitled to.;NULL;NULL;NULL;1957;1694
1762;Know what an illegally terminated employee is entitled to.;NULL;NULL;NULL;1957;1801
1795;Check if the employer used just grounds to justify your termination. If the employer did not use such grounds, then the dismissal would be invalid.;NULL;NULL;NULL;1165;1816
1796;Check if the employer used authorized grounds to justify your termination. If the employer did not use such grounds, then the dismissal would be invalid.;NULL;NULL;NULL;1166;1816
1797;Know what an illegally terminated employee is entitled to.;NULL;NULL;NULL;1957;1816
1798;File a case.;NULL;NULL;NULL;1667;1816
1799;Know what an illegally terminated employee is entitled to.;NULL;NULL;NULL;1957;1817
1800;File a case.;NULL;NULL;NULL;1667;1817
1851;Check if the employer used just grounds to justify your termination. If the employer did not use such grounds, then the dismissal would be invalid.;NULL;NULL;NULL;1165;1818
1852;Check if the employer used authorized grounds to justify your termination. If the employer did not use such grounds, then the dismissal would be invalid.;NULL;NULL;NULL;1166;1818
1853;Know what an illegally terminated employee is entitled to.;NULL;NULL;NULL;1957;1818
1854;File a case.;NULL;NULL;NULL;1667;1818
1859;Know what an illegally terminated employee is entitled to.;NULL;NULL;NULL;1957;1820
1860;File a case.;NULL;NULL;NULL;1667;1820
1861;Determine what type of resignation was made.;NULL;NULL;NULL;1483;1821
1862;Know what an illegally terminated employee is entitled to.;NULL;NULL;NULL;1957;1822
1863;File a case.;NULL;NULL;NULL;1667;1822
1864;Know what an illegally terminated employee is entitled to.;NULL;NULL;NULL;1957;1823
1865;File a case.;NULL;NULL;NULL;1667;1823
1866;Know what an illegally terminated employee is entitled to.;NULL;NULL;NULL;1957;1824
1867;File a case.;NULL;NULL;NULL;1667;1824
1868;Determine if resignation is valid.;NULL;NULL;NULL;1484;1825
1869;Determine if resignation is valid.;NULL;NULL;NULL;1484;1826
1870;Know what an illegally terminated employee is entitled to.;NULL;NULL;NULL;1957;1827
1871;File a case.;NULL;NULL;NULL;1667;1827
1872;Know what an illegally terminated employee is entitled to.;NULL;NULL;NULL;1957;1828
1873;File a case.;NULL;NULL;NULL;1667;1828
1874;Know what an illegally terminated employee is entitled to.;NULL;NULL;NULL;1957;1829
1875;File a case.;NULL;NULL;NULL;1667;1829
1877;File a case.;NULL;NULL;NULL;1667;1830
1879;File a case.;NULL;NULL;NULL;1667;1831
1882;See Applicable Minimum Wage Rates;NULL;NULL;NULL;NULL;1833
1884;See Applicable Minimum Wage Rates;NULL;NULL;NULL;NULL;1834
1886;See Applicable Minimum Wage Rates;NULL;NULL;NULL;NULL;1835
1888;See Applicable Minimum Wage Rates;NULL;NULL;NULL;NULL;1836
1890;See Applicable Minimum Wage Rates;NULL;NULL;NULL;NULL;1837
1892;See Applicable Minimum Wage Rates;NULL;NULL;NULL;NULL;1838
1894;See Applicable Minimum Wage Rates;NULL;NULL;NULL;NULL;1839
1896;See Applicable Minimum Wage Rates;NULL;NULL;NULL;NULL;1840
1898;See Applicable Minimum Wage Rates;NULL;NULL;NULL;NULL;1841
1900;See Applicable Minimum Wage Rates;NULL;NULL;NULL;NULL;1842
1902;See Applicable Minimum Wage Rates;NULL;NULL;NULL;NULL;1843
1904;See Applicable Minimum Wage Rates;NULL;NULL;NULL;NULL;1844
1906;See Applicable Minimum Wage Rates;NULL;NULL;NULL;NULL;1845
1908;See Applicable Minimum Wage Rates;NULL;NULL;NULL;NULL;1846
1910;See Annex 1 for General Wage & Benefits Calculator;NULL;NULL;NULL;NULL;1847
1912;See Annex 1 for General Wage & Benefits Calculator;NULL;NULL;NULL;NULL;1848
1914;See Annex 1 for General Wage & Benefits Calculator;NULL;NULL;NULL;NULL;1849
1916;See Annex 1 for General Wage & Benefits Calculator;NULL;NULL;NULL;NULL;1850
1918;See Annex 2 for 13th Month Pay Calculator;NULL;NULL;NULL;NULL;1951
1920;See Annex 2 for 13th Month Pay Calculator;NULL;NULL;NULL;NULL;1952
1922;See Annex 2 for 13th Month Pay Calculator;NULL;NULL;NULL;NULL;1953
1924;See Annex 3 for Separation Pay Calculator;NULL;NULL;NULL;NULL;1954
1926;See Annex 3 for Separation Pay Calculator;NULL;NULL;NULL;NULL;1955
1928;See Annex 3 for Separation Pay Calculator;NULL;NULL;NULL;NULL;1956
1932;See Annex 4 for Retirement Pay Calculator;NULL;NULL;NULL;NULL;1959
1934;See Annex 4 for Retirement Pay Calculator;NULL;NULL;NULL;NULL;1960
1936;See Annex 5 for Service Incentive Leave Calculator;NULL;NULL;NULL;NULL;1961
1022;No, he cannot exercise one, some, or all of those powers.;NULL;NULL;NULL;960;959
1031;No, my money claims are not related to illegal dismissal.;NULL;NULL;NULL;964;963
1099;No, I am not.;NULL;NULL;NULL;989;987
1114;I’m not sure if I was validly terminated under one of those causes.;NULL;NULL;NULL;1166;994
1123;I’m not sure if I was validly terminated because of this reason.;NULL;NULL;NULL;1166;997
1938;No, I have not rendered service for at least 5 years.;NULL;NULL;2138;NULL;1155
1203;No, I was not able to institute a claim before 4 years had passed.;NULL;NULL;2002;NULL;1162
1244;No, it was not.;NULL;NULL;NULL;1679;1176
1282;No, I did not.;NULL;NULL;NULL;1195;1194
1288;No, I did not.;NULL;NULL;NULL;1685;1197
1294;No, I did not.;NULL;NULL;NULL;1301;1200
1371;No, I was not.;NULL;NULL;NULL;1689;1313
1394;No, it was not.;NULL;NULL;NULL;1692;1324
1885;File a case.;NULL;NULL;NULL;1667;1834
1887;File a case.;NULL;NULL;NULL;1667;1835
1889;File a case.;NULL;NULL;NULL;1667;1836
1893;File a case.;NULL;NULL;NULL;1667;1838
1895;File a case.;NULL;NULL;NULL;1667;1839
1897;File a case.;NULL;NULL;NULL;1667;1840
1089;Region XIII (CARAGA);NULL;NULL;NULL;1845;982
1104;No, my work with the employer has not yet reached 1 month for the calendar year.;NULL;NULL;2125;991;990
1135;No, I have not rendered service for at least 5 years.;NULL;NULL;2136;1154;1153
1148;No, I have not yet rendered 1 year of service.;NULL;NULL;2141;1961;1160
1218;I was a striker who violated an order, prohibition, or injunction issued by the Department of Labor and Employment (DOLE) Secretary or the National Labor Relations Commission (NLRC).;NULL;NULL;NULL;1303;1170
1219;Violation of a union security agreement in the Collective Bargaining Agreement (CBA).;NULL;NULL;NULL;1306;1170
1227;Violation of company rules and regulations.;NULL;NULL;NULL;1175;1170
1249;It was habitual, but not gross.;NULL;NULL;NULL;1680;1179
1257;No, it was not.;NULL;NULL;NULL;1681;1182
1261;No, I did not.;NULL;NULL;NULL;1682;1184
1271;No, I did not.;NULL;NULL;NULL;1683;1189
1277;No, it was not.;NULL;NULL;2018;1683;1192
1351;The Secretary certified it to the National Labor Relations Commission.;NULL;NULL;NULL;1305;1303
1372;No, the employer was the one that initiated my dismissal.;NULL;NULL;2029;1689;1314
1899;File a case.;NULL;NULL;NULL;1667;1841
1003;No, I do not have a grievance against a co-worker or your employer / superior / management, or in relation to labor unions / organizations / the right of representation.;NULL;NULL;NULL;NULL;952
1078;Bangsamoro Autonomous Region (formerly Autonomous Region of Muslim Mindanao);NULL;NULL;NULL;1846;982
1299;No, the Secretary neither assumed jurisdiction nor certified the dispute to the National Labor Relations Commission.;NULL;NULL;NULL;1688;1303
1901;File a case.;NULL;NULL;NULL;1667;1842
1903;File a case.;NULL;NULL;NULL;1667;1843
1905;File a case.;NULL;NULL;NULL;1667;1844
1907;File a case.;NULL;NULL;NULL;1667;1845
1909;File a case.;NULL;NULL;NULL;1667;1846
1911;File a case.;NULL;NULL;NULL;1667;1847
1913;File a case.;NULL;NULL;NULL;1667;1848
1915;File a case.;NULL;NULL;NULL;1667;1849
1917;File a case.;NULL;NULL;NULL;1667;1850
1919;File a case.;NULL;NULL;NULL;1667;1951
1921;File a case.;NULL;NULL;NULL;1667;1952
1923;File a case.;NULL;NULL;NULL;1667;1953
1925;File a case.;NULL;NULL;NULL;1667;1954
1927;File a case.;NULL;NULL;NULL;1667;1955
1929;File a case.;NULL;NULL;NULL;1667;1956
1930;File a case.;NULL;NULL;NULL;1667;1957
1931;File a case.;NULL;NULL;NULL;1667;1958
1933;File a case.;NULL;NULL;NULL;1667;1959
1935;File a case.;NULL;NULL;NULL;1667;1960
1937;File a case.;NULL;NULL;NULL;1667;1961
1398;No, it was not.;NULL;NULL;NULL;1693;1326
1524;There is a written employment contract, but it does not state that I am a project employee.;NULL;NULL;NULL;1466;1462
1528;No, the project or undertaking’s scope and duration was not specified at the time I was hired.;NULL;NULL;NULL;1466;1464
1537;There is a written employment contract, but it does not state that I am a seasonal employee.;NULL;NULL;NULL;1472;1467
1575;"I availed of the employer’s special voluntary resignation (SVR) program, Special Separation Program (SSP), or other similar programs.

Under SVRs, SSPs, and similar schemes, employers offer resignation benefits to employees who voluntarily terminate the employment relationship. (Jiao v. NLRC, G.R. No. 18233, 18 April 2012)";NULL;NULL;2005;NULL;1483
1606;No, the employer did not commit a crime or offense against me or my immediate family members.;NULL;NULL;NULL;1498;1497
1612;No, I did not resign because my salary was decreased.;NULL;NULL;NULL;1651;1500
1883;File a case.;NULL;NULL;NULL;1667;1833
1891;File a case.;NULL;NULL;NULL;1667;1837
1405;"Retrenchment.

Retrenchment is resorted to primarily avoid or minimize serious business losses. (Atlantic Gulf and Pacific Company of Manila, Inc. [AG & P] v. NLRC, G.R. No. 127516, 28 May 1999)";NULL;NULL;NULL;1338;1330
1623;No, it was not done to comply with an order from the government.;NULL;NULL;NULL;1657;1656
1631;No, it did not.;NULL;NULL;NULL;1826;1660
1642;Yes, I resigned because continued employment became impossible, unreasonable, or unlikely.;NULL;NULL;NULL;1824;1665
1641;No, I did not resign because of that.;NULL;NULL;NULL;1484;1665
1705;No, I did not use the grievance mechanism for this issue.;NULL;NULL;2096;1673;1672
1735;Know what an illegally terminated employee is entitled to.;NULL;NULL;NULL;1957;1687
1734;File a case.;NULL;NULL;NULL;1667;1687
1744;File a case.;NULL;NULL;NULL;1667;1692
1748;File a case.;NULL;NULL;NULL;1667;1694
1753;Know what an illegally terminated employee is entitled to.;NULL;NULL;NULL;1957;1696
1752;File a case.;NULL;NULL;NULL;1667;1696
1778;File a case.;NULL;NULL;NULL;1667;1810
1793;Check if the employer used just grounds to justify your termination. If the employer did not use such grounds, then the dismissal would be invalid.;NULL;NULL;NULL;1165;1815
1792;Know what an illegally terminated employee is entitled to.;NULL;NULL;NULL;1957;1815
1791;File a case.;NULL;NULL;NULL;1667;1815
1855;Check if the employer used authorized grounds to justify your termination. If the employer did not use such grounds, then the dismissal would be invalid.;NULL;NULL;NULL;1166;1819
1857;Know what an illegally terminated employee is entitled to.;NULL;NULL;NULL;1957;1819
1856;File a case.;NULL;NULL;NULL;1667;1819
1041;No, I am not a member of the managerial staff.;NULL;NULL;NULL;975;968
2264;No. ;NULL;NULL;2351;2208;2207
1221;Theft of property owned by a co-employee.;Gross incompetence, inefficiency, or ineptitude.;NULL;NULL;1171;1170
1232;TEQ19;Attitude problem.;NULL;NULL;NULL;1170
1228;TEQ28;TEQ55;NULL;NULL;1306;1170
1373;Yes, the sole and exclusive bargaining agent was the one that demanded my dismissal, and the employer conducted an independent investigation.;NULL;NULL;2029;1689;1314
1401;No, the proper separation pay was not given.;NULL;NULL;NULL;1693;1328
1407;"Installation of labor-saving devices.

Labor-saving devices are machineries or equipment that replaces the need for employing workers, and thereby reduces the number of workers in the workplace. (Sec. 4 (m), Rule I-A, Book VI, Implementing Rules of the Labor Code)";NULL;NULL;NULL;1331;1330
1408;"Redundancy.

There is redundancy when the services of an employee are in excess of what is required by a business. It is not always triggered by a decline in business. (Atlantic Gulf and Pacific Company of Manila, Inc. [AG & P] v. NLRC, G.R. No. 127516, 28 May 1999). There is redundancy when there is an excess of employees working with the same position or performing the same function (General Milling Corporation v. Violeta L. Viajar, G.R. No. 181738, 2013).";NULL;NULL;NULL;1333;1330
1406;Closure or cessation of business operations.;NULL;NULL;NULL;1342;1330
1549;There is a written employment contract, but it does not state that I am a casual employee.;NULL;NULL;NULL;1477;1473
1556;No, I have not been repeatedly rehired.;NULL;NULL;2064;1815;1476
1568;No, the termination happened before the lapse of the period.;NULL;NULL;NULL;1819;1481
1624;Yes, it was done to comply with an order from the government.;NULL;NULL;NULL;1825;1656
1716;File a case.;NULL;NULL;NULL;1667;1678
1724;File a case.;NULL;NULL;NULL;1667;1682
1761;File a case.;NULL;NULL;NULL;1667;1801
1772;File a case.;NULL;NULL;NULL;1667;1807
1779;Know what an illegally terminated employee is entitled to.;NULL;NULL;NULL;1957;1810
2253;The applicant resides in Metro Manila. ;NULL;NULL;NULL;2203;2202
2254;The applicant resides in other cities ;NULL;NULL;NULL;2204;2202
2255;The applicant resides in oher places. ;NULL;NULL;NULL;2205;2202
2265;Yes. ;NULL;NULL;2304;NULL;2207
2258;Yes, the applicant's income exceeds 13,000 a month. ;NULL;NULL;2302;NULL;2204
2259;No, the applicant's income does not exceed 13,000 a month. ;NULL;NULL;NULL;2205;2204
2260;Yes, the applicant's income exceeds 12,000 a month. ;NULL;NULL;2302;NULL;2205
2261;No, the applicant's income does not exceed 12,000 a month. ;NULL;NULL;NULL;2206;2205
2262;Yes. ;NULL;NULL;2303;NULL;2206
2263;No. ;NULL;NULL;NULL;2207;2206
2257;Yes, the applicant's income exceeds 14,000 a month. ;NULL;NULL;2302;NULL;2203
1002;Yes, I am employed by the government or a government owned or controlled corporation with an original charter.;NULL;NULL;2145;NULL;951
1042;Yes, I am a member of the managerial staff.;Members of the managerial staff are not entitled to holiday pay, premium pay, overtime pay, or night shift differentials under the Labor Code. (Art. 82, Labor Code) They are not entitled to 13th Month Pay. (Revised Guidelines on the Implementation of the 13th Month Pay Law, 16 November 1987) They are entitled to Retirement Pay. (Art. 302, Labor Code);NULL;2147;NULL;968
1001;No, I am not employed by the government or a government owned or controlled corporation.;NULL;NULL;NULL;952;951
1040;I don’t know.;NULL;NULL;NULL;969;968
2252;The applicant is a juridical person. ;NULL;NULL;2301;NULL;2201
2251;The applicant is a natural person. ;NULL;NULL;NULL;2202;2201
2256;No, the applicant's income does not exceed 14,000 a month. ;NULL;NULL;NULL;2205;2203
